PROFª MA. ELOÍZA MARTINS PRIMO CAPELOCI;SEGUNDA;4
PROF. DR. GUSTAVO DI CHIACCHIO FAULIN;SEGUNDA;4
PROF. ÉTTORE LEANDRO TOGNOLI;SEGUNDA;4
PROF. ÉTTORE LEANDRO TOGNOLI;TERCA;4
PROF. VICTOR BORBA;QUARTA;4
PROF. VICTOR BORBA;QUARTA;4
PROF. CESAR;SEXTA;4
PROF. CLEBER;QUARTA;4
