Victor;Algoritmos_Avançados;6;quarta;13;17
Victor;Algoritmos_Avançados;6;quinta;13;17
Ettore;Redes_de_Computadores;4;terça;13;17
Cleber;Web_Semântica;4;sexta;13;17
Faulin;Manejos_Agrícolas_de_Tratos_Culturais_e_Colheita;2;segunda;15;17
Cesar;Empreendedorismo;2;quarta;13;15
Eloiza;Inglês;2;segunda;13;15